HW3/F74046242/SRC/top.vcd
$date
	Wed May 24 18:55:21 2017
$end
$version
	Icarus Verilog
$end
$timescale
	10ps
$end
$scope module testfixture1 $end
$var wire 16 ! DM_Address [15:0] $end
$var wire 32 " DM_Read_Data [31:0] $end
$var wire 32 # DM_Write_Data [31:0] $end
$var wire 1 $ DM_enable $end
$var wire 16 % IM_Address [15:0] $end
$var wire 32 & Instruction [31:0] $end
$var reg 1 ' clk $end
$var reg 1 ( err_I $end
$var reg 1 ) err_J $end
$var reg 1 * err_R $end
$var integer 32 + i [31:0] $end
$var reg 1 , rst $end
$var reg 1 - start_J $end
$scope module IM1 $end
$var wire 16 . IM_Address [15:0] $end
$var wire 32 / Instruction [31:0] $end
$var wire 1 0 clk $end
$var wire 1 1 rst $end
$upscope $end
$scope module DM1 $end
$var wire 16 2 DM_Address [15:0] $end
$var wire 32 3 DM_Read_Data [31:0] $end
$var wire 32 4 DM_Write_Data [31:0] $end
$var wire 1 $ DM_enable $end
$var wire 1 0 clk $end
$var wire 1 1 rst $end
$var integer 32 5 i [31:0] $end
$upscope $end
$scope module top1 $end
$var wire 18 6 ADD1 [17:0] $end
$var wire 18 7 ADD2 [17:0] $end
$var wire 18 8 ADD3 [17:0] $end
$var wire 4 9 ALUOp [3:0] $end
$var wire 32 : ALU_result [31:0] $end
$var wire 16 ; DM_Address [15:0] $end
$var wire 32 < DM_Read_Data [31:0] $end
$var wire 32 = DM_Write_Data [31:0] $end
$var wire 1 $ DM_enable $end
$var wire 4 > EX_ALUOp [3:0] $end
$var wire 32 ? EX_ALU_result [31:0] $end
$var wire 3 @ EX_J_Mode [2:0] $end
$var wire 1 A EX_Jal $end
$var wire 2 B EX_JumpOP [1:0] $end
$var wire 1 C EX_Lh $end
$var wire 1 D EX_MemWrite $end
$var wire 1 E EX_MemtoReg $end
$var wire 18 F EX_PC [17:0] $end
$var wire 18 G EX_PCplus8 [17:0] $end
$var wire 1 H EX_RegWrite $end
$var wire 1 I EX_Reg_imm $end
$var wire 5 J EX_Rs [4:0] $end
$var wire 32 K EX_Rs_data [31:0] $end
$var wire 5 L EX_Rt [4:0] $end
$var wire 32 M EX_Rt_data [31:0] $end
$var wire 1 N EX_Sh $end
$var wire 5 O EX_WR_out [4:0] $end
$var wire 16 P EX_imm [15:0] $end
$var wire 32 Q EX_se_imm [31:0] $end
$var wire 5 R EX_shamt [4:0] $end
$var wire 1 S ForwardA $end
$var wire 32 T ForwardA_Out [31:0] $end
$var wire 1 U ForwardB $end
$var wire 32 V ForwardB_Out [31:0] $end
$var wire 1 W ForwardC $end
$var wire 32 X ForwardC_Out [31:0] $end
$var wire 1 Y ForwardD $end
$var wire 32 Z ForwardD_Out [31:0] $end
$var wire 4 [ ID_ALUOp [3:0] $end
$var wire 1 \ ID_Flush $end
$var wire 1 ] ID_Jal $end
$var wire 1 ^ ID_Lh $end
$var wire 1 _ ID_MemWrite $end
$var wire 1 ` ID_MemtoReg $end
$var wire 18 a ID_PC [17:0] $end
$var wire 1 b ID_RegWrite $end
$var wire 1 c ID_Reg_imm $end
$var wire 5 d ID_Rs [4:0] $end
$var wire 32 e ID_Rs_data [31:0] $end
$var wire 5 f ID_Rt [4:0] $end
$var wire 32 g ID_Rt_data [31:0] $end
$var wire 1 h ID_Sh $end
$var wire 5 i ID_WR_out [4:0] $end
$var wire 16 j ID_imm [15:0] $end
$var wire 32 k ID_ir [31:0] $end
$var wire 32 l ID_se_imm [31:0] $end
$var wire 5 m ID_shamt [4:0] $end
$var wire 1 n IF_Flush $end
$var wire 1 o IF_IDWrite $end
$var wire 18 p IF_PC [17:0] $end
$var wire 32 q IF_ir [31:0] $end
$var wire 16 r IM_Address [15:0] $end
$var wire 32 s Instruction [31:0] $end
$var wire 3 t J_Mode [2:0] $end
$var wire 32 u Jal_Out [31:0] $end
$var wire 32 v LwLh_Out [31:0] $end
$var wire 32 w M_ALU_result [31:0] $end
$var wire 32 x M_DM_Read_Data [31:0] $end
$var wire 1 y M_Jal $end
$var wire 1 z M_Lh $end
$var wire 1 { M_MemWrite $end
$var wire 1 | M_MemtoReg $end
$var wire 18 } M_PCplus8 [17:0] $end
$var wire 1 ~ M_RegWrite $end
$var wire 32 !" M_Rt_data [31:0] $end
$var wire 1 "" M_Sh $end
$var wire 32 #" M_WD_out [31:0] $end
$var wire 5 $" M_WR_out [4:0] $end
$var wire 1 %" PCWrite $end
$var wire 18 &" PCout [17:0] $end
$var wire 5 '" RegDst_Out [4:0] $end
$var wire 1 (" RegWrite $end
$var wire 32 )" Reg_imm_Out [31:0] $end
$var wire 32 *" SignExtension1 [31:0] $end
$var wire 32 +" SignExtension2 [31:0] $end
$var wire 32 ," SignExtension3 [31:0] $end
$var wire 32 -" SwSh_Out [31:0] $end
$var wire 32 ." WB_DM_Read_Data [31:0] $end
$var wire 1 /" WB_MemtoReg $end
$var wire 32 0" WB_Out [31:0] $end
$var wire 1 1" WB_RegWrite $end
$var wire 32 2" WB_WD_out [31:0] $end
$var wire 5 3" WB_WR_out [4:0] $end
$var wire 1 4" Zero $end
$var wire 1 0 clk $end
$var wire 7 5" mux [6:0] $end
$var wire 5 6" reg_write_addr [4:0] $end
$var wire 32 7" reg_write_data [31:0] $end
$var wire 1 1 rst $end
$var wire 32 8" src1 [31:0] $end
$var wire 32 9" src2 [31:0] $end
$var wire 5 :" wrAddress_Out [4:0] $end
$var reg 18 ;" PCin [17:0] $end
$scope module pc $end
$var wire 1 %" PCWrite $end
$var wire 18 <" PCin [17:0] $end
$var wire 1 0 clk $end
$var wire 1 1 rst $end
$var reg 18 =" PCout [17:0] $end
$upscope $end
$scope module if_id $end
$var wire 1 n IF_Flush $end
$var wire 1 o IF_IDWrite $end
$var wire 18 >" IF_PC [17:0] $end
$var wire 32 ?" IF_ir [31:0] $end
$var wire 1 0 clk $end
$var wire 1 1 rst $end
$var reg 18 @" ID_PC [17:0] $end
$var reg 32 A" ID_ir [31:0] $end
$upscope $end
$scope module regfile $end
$var wire 5 B" Read_addr_1 [4:0] $end
$var wire 5 C" Read_addr_2 [4:0] $end
$var wire 32 D" Read_data_1 [31:0] $end
$var wire 32 E" Read_data_2 [31:0] $end
$var wire 1 1" RegWrite $end
$var wire 5 F" Write_addr [4:0] $end
$var wire 32 G" Write_data [31:0] $end
$var wire 1 0 clk $end
$var wire 1 1 rst $end
$var integer 32 H" i [31:0] $end
$upscope $end
$scope module ctrler $end
$var wire 6 I" funct [5:0] $end
$var wire 6 J" opcode [5:0] $end
$var reg 4 K" ALUOp [3:0] $end
$var reg 1 L" DM_enable $end
$var reg 3 M" J_Mode [2:0] $end
$var reg 1 N" RegWrite $end
$var reg 7 O" mux [6:0] $end
$upscope $end
$scope module id_ex $end
$var wire 4 P" ID_ALUOp [3:0] $end
$var wire 1 \ ID_Flush $end
$var wire 3 Q" ID_J_Mode [2:0] $end
$var wire 1 ] ID_Jal $end
$var wire 1 ^ ID_Lh $end
$var wire 1 _ ID_MemWrite $end
$var wire 1 ` ID_MemtoReg $end
$var wire 18 R" ID_PC [17:0] $end
$var wire 1 b ID_RegWrite $end
$var wire 1 c ID_Reg_imm $end
$var wire 5 S" ID_Rs [4:0] $end
$var wire 32 T" ID_Rs_data [31:0] $end
$var wire 5 U" ID_Rt [4:0] $end
$var wire 32 V" ID_Rt_data [31:0] $end
$var wire 1 h ID_Sh $end
$var wire 5 W" ID_WR_out [4:0] $end
$var wire 16 X" ID_imm [15:0] $end
$var wire 32 Y" ID_se_imm [31:0] $end
$var wire 5 Z" ID_shamt [4:0] $end
$var wire 1 0 clk $end
$var wire 1 1 rst $end
$var reg 4 [" EX_ALUOp [3:0] $end
$var reg 3 \" EX_J_Mode [2:0] $end
$var reg 1 ]" EX_Jal $end
$var reg 1 ^" EX_Lh $end
$var reg 1 _" EX_MemWrite $end
$var reg 1 `" EX_MemtoReg $end
$var reg 18 a" EX_PC [17:0] $end
$var reg 1 b" EX_RegWrite $end
$var reg 1 c" EX_Reg_imm $end
$var reg 5 d" EX_Rs [4:0] $end
$var reg 32 e" EX_Rs_data [31:0] $end
$var reg 5 f" EX_Rt [4:0] $end
$var reg 32 g" EX_Rt_data [31:0] $end
$var reg 1 h" EX_Sh $end
$var reg 5 i" EX_WR_out [4:0] $end
$var reg 16 j" EX_imm [15:0] $end
$var reg 32 k" EX_se_imm [31:0] $end
$var reg 5 l" EX_shamt [4:0] $end
$upscope $end
$scope module jCtrl $end
$var wire 3 m" J_Mode [2:0] $end
$var wire 1 4" Zero $end
$var reg 2 n" JumpOP [1:0] $end
$upscope $end
$scope module hdu $end
$var wire 2 o" EX_JumpOP [1:0] $end
$var wire 1 E EX_MemtoReg $end
$var wire 5 p" EX_WR_out [4:0] $end
$var wire 5 q" ID_Rs [4:0] $end
$var wire 5 r" ID_Rt [4:0] $end
$var reg 1 s" ID_Flush $end
$var reg 1 t" IF_Flush $end
$var reg 1 u" IF_IDWrite $end
$var reg 1 v" PCWrite $end
$upscope $end
$scope module alu $end
$var wire 4 w" ALUOp [3:0] $end
$var wire 1 4" Zero $end
$var wire 5 x" shamt [4:0] $end
$var wire 32 y" src1 [31:0] $end
$var wire 32 z" src2 [31:0] $end
$var reg 32 {" ALU_result [31:0] $end
$upscope $end
$scope module ex_m $end
$var wire 32 |" EX_ALU_result [31:0] $end
$var wire 1 A EX_Jal $end
$var wire 1 C EX_Lh $end
$var wire 1 D EX_MemWrite $end
$var wire 1 E EX_MemtoReg $end
$var wire 18 }" EX_PCplus8 [17:0] $end
$var wire 1 H EX_RegWrite $end
$var wire 32 ~" EX_Rt_data [31:0] $end
$var wire 1 N EX_Sh $end
$var wire 5 !# EX_WR_out [4:0] $end
$var wire 1 0 clk $end
$var wire 1 1 rst $end
$var reg 32 "# M_ALU_result [31:0] $end
$var reg 1 ## M_Jal $end
$var reg 1 $# M_Lh $end
$var reg 1 %# M_MemWrite $end
$var reg 1 &# M_MemtoReg $end
$var reg 18 '# M_PCplus8 [17:0] $end
$var reg 1 (# M_RegWrite $end
$var reg 32 )# M_Rt_data [31:0] $end
$var reg 1 *# M_Sh $end
$var reg 5 +# M_WR_out [4:0] $end
$upscope $end
$scope module m_wb $end
$var wire 32 ,# M_DM_Read_Data [31:0] $end
$var wire 1 | M_MemtoReg $end
$var wire 1 ~ M_RegWrite $end
$var wire 32 -# M_WD_out [31:0] $end
$var wire 5 .# M_WR_out [4:0] $end
$var wire 1 0 clk $end
$var wire 1 1 rst $end
$var reg 32 /# WB_DM_Read_Data [31:0] $end
$var reg 1 0# WB_MemtoReg $end
$var reg 1 1# WB_RegWrite $end
$var reg 32 2# WB_WD_out [31:0] $end
$var reg 5 3# WB_WR_out [4:0] $end
$upscope $end
$scope module fu $end
$var wire 5 4# EX_Rs [4:0] $end
$var wire 5 5# EX_Rt [4:0] $end
$var wire 1 ~ M_RegWrite $end
$var wire 5 6# M_WR_out [4:0] $end
$var wire 1 1" WB_RegWrite $end
$var wire 5 7# WB_WR_out [4:0] $end
$var reg 1 8# ForwardA $end
$var reg 1 9# ForwardB $end
$var reg 1 :# ForwardC $end
$var reg 1 ;# ForwardD $end
$upscope $end
$upscope $end
$upscope $end
$enddefinitions $end
#0
$dumpvars
x;#
x:#
x9#
x8#
bx 7#
bx 6#
bx 5#
bx 4#
bx 3#
bx 2#
x1#
x0#
bx /#
bx .#
bx -#
bx ,#
bx +#
x*#
bx )#
x(#
bx '#
x&#
x%#
x$#
x##
bx "#
bx !#
bx ~"
bx }"
b0 |"
b0 {"
bx z"
bx y"
bx x"
bx w"
1v"
1u"
0t"
0s"
bx r"
bx q"
bx p"
b0 o"
b0 n"
bx m"
bx l"
bx k"
bx j"
bx i"
xh"
bx g"
bx f"
bx e"
bx d"
xc"
xb"
bx a"
x`"
x_"
x^"
x]"
bx \"
bx ["
bx Z"
bx Y"
bx X"
bx W"
bx V"
bx U"
bx T"
bx S"
bx R"
bx Q"
bx P"
bx O"
0N"
bx M"
0L"
bx K"
bx J"
bx I"
bx H"
bx G"
bx F"
bx E"
bx D"
bx C"
bx B"
bx A"
bx @"
bx ?"
bx >"
bx ="
bx <"
bx ;"
bx :"
bx 9"
bx 8"
bx 7"
bx 6"
bx 5"
14"
bx 3"
bx 2"
x1"
bx 0"
x/"
bx ."
bx -"
bx ,"
bx +"
bx *"
bx )"
0("
bx '"
bx &"
1%"
bx $"
bx #"
x""
bx !"
x~
bx }
x|
x{
xz
xy
bx x
bx w
bx v
bx u
bx t
bx s
bx r
bx q
bx p
1o
0n
bx m
bx l
bx k
bx j
bx i
xh
bx g
bx f
bx e
bx d
xc
0b
bx a
x`
0_
x^
x]
0\
bx [
bx Z
xY
bx X
xW
bx V
xU
bx T
xS
bx R
bx Q
bx P
bx O
xN
bx M
bx L
bx K
bx J
xI
xH
bx G
bx F
xE
xD
xC
b0 B
xA
bx @
b0 ?
bx >
bx =
bx <
bx ;
b0 :
bx 9
bx 8
bx 7
bx 6
bx 5
bx 4
bx 3
bx 2
01
00
bx /
bx .
x-
0,
bx +
0*
x)
x(
0'
bx &
bx %
x$
bx #
bx "
bx !
$end
#500
1'
10
#600
b0 :"
b0 i
b0 W"
0c
0h
0^
0]
1`
b111 M"
b111 t
b111 Q"
1N"
1("
1b
b1011 K"
b1011 9
b1011 [
b1011 P"
b1000010 O"
b1000010 5"
1;#
1Y
0:#
0W
19#
1U
08#
0S
b100 ;"
b100 <"
b0 {"
14"
b0 :
b0 ?
b0 |"
b0 )"
b0 z"
b0 Z
b0 ~"
b0 V
b0 y"
b0 ,"
b0 +"
b0 X
b0 T
b0 '"
b0 *"
b0 l
b0 Y"
b0 0"
b0 7"
b0 G"
b0 v
b0 x
b0 ,#
b0 -"
b0 #
b0 4
b0 =
b0 u
b0 #"
b0 -#
b0 "
b0 3
b0 <
b0 !
b0 2
b0 ;
b0 8
b100 7
b100 G
b100 }"
b0 f
b0 U"
b0 r"
b0 d
b0 S"
b0 q"
b0 j
b0 X"
b0 m
b0 Z"
b0 I"
b0 J"
b0 C"
b0 9"
b0 E"
b0 g
b0 V"
b0 B"
b0 8"
b0 D"
b0 e
b0 T"
b100 6
b100 p
b100 >"
b0 q
b0 ?"
b0 &
b0 /
b0 s
b0 %
b0 .
b0 r
b0 3#
b0 3"
b0 7#
b0 6"
b0 F"
b0 2#
b0 2"
b0 /#
b0 ."
01#
01"
00#
0/"
0*#
0""
0$#
0z
0##
0y
b0 +#
b0 $"
b0 .#
b0 6#
b0 '#
b0 }
b0 )#
b0 !"
b0 "#
b0 w
0%#
0{
0$
0(#
0~
0&#
0|
b0 f"
b0 L
b0 5#
b0 d"
b0 J
b0 4#
b0 i"
b0 O
b0 p"
b0 !#
b0 k"
b0 Q
b0 j"
b0 P
b0 g"
b0 M
b0 e"
b0 K
b0 l"
b0 R
b0 x"
b0 ["
b0 >
b0 w"
b0 a"
b0 F
b111 \"
b111 @
b111 m"
0c"
0I
0h"
0N
0^"
0C
0]"
0A
0_"
0D
0b"
0H
0`"
0E
b0 A"
b0 k
b0 @"
b0 a
b0 R"
b0 ="
b0 &"
b100000 H"
b10000000000000000 5
1,
11
#1000
0'
00
#1500
b100000 H"
b10000000000000000 5
1'
10
#1600
b1000 ;"
b1000 <"
b1000 6
b1000 p
b1000 >"
b1 %
b1 .
b1 r
b100 '#
b100 }
b1011 ["
b1011 >
b1011 w"
1b"
1H
1`"
1E
b100 @"
b100 a
b100 R"
b100 ="
b100 &"
0,
01
#2000
b1100 ;"
b1100 <"
b1100 6
b1100 p
b1100 >"
b10 %
b10 .
b10 r
b1000 7
b1000 G
b1000 }"
b1000 ="
b1000 &"
b1000 @"
b1000 a
b1000 R"
b100 a"
b100 8
b100 F
1(#
1~
1&#
1|
0'
00
#2500
1'
10
#3000
b10000 ;"
b10000 <"
b1100 7
b1100 G
b1100 }"
b10000 6
b10000 p
b10000 >"
b11 %
b11 .
b11 r
11#
11"
10#
1/"
b1000 '#
b1000 }
b1000 a"
b1000 8
b1000 F
b1100 @"
b1100 a
b1100 R"
b1100 ="
b1100 &"
0'
00
#3500
1'
10
#4000
b10100 ;"
b10100 <"
b10100 6
b10100 p
b10100 >"
b100 %
b100 .
b100 r
b10000 7
b10000 G
b10000 }"
b10000 ="
b10000 &"
b10000 @"
b10000 a
b10000 R"
b1100 a"
b1100 8
b1100 F
b1100 '#
b1100 }
0'
00
#4500
1'
10
#5000
b11000 ;"
b11000 <"
b10100 7
b10100 G
b10100 }"
b11000 6
b11000 p
b11000 >"
b101 %
b101 .
b101 r
b10000 '#
b10000 }
b10000 a"
b10000 8
b10000 F
b10100 @"
b10100 a
b10100 R"
b10100 ="
b10100 &"
0'
00
#5500
1'
10
#6000
b11100 ;"
b11100 <"
b11100 6
b11100 p
b11100 >"
b110 %
b110 .
b110 r
b11000 7
b11000 G
b11000 }"
b11000 ="
b11000 &"
b11000 @"
b11000 a
b11000 R"
b10100 a"
b10100 8
b10100 F
b10100 '#
b10100 }
0'
00
#6500
1'
10
#7000
b100000 ;"
b100000 <"
b11100 7
b11100 G
b11100 }"
b100000 6
b100000 p
b100000 >"
b111 %
b111 .
b111 r
b11000 '#
b11000 }
b11000 a"
b11000 8
b11000 F
b11100 @"
b11100 a
b11100 R"
b11100 ="
b11100 &"
0'
00
#7500
1'
10
#8000
b100100 ;"
b100100 <"
b100100 6
b100100 p
b100100 >"
b1000 %
b1000 .
b1000 r
b100000 7
b100000 G
b100000 }"
b100000 ="
b100000 &"
b100000 @"
b100000 a
b100000 R"
b11100 a"
b11100 8
b11100 F
b11100 '#
b11100 }
0'
00
#8500
1'
10
#9000
b101000 ;"
b101000 <"
b100100 7
b100100 G
b100100 }"
b101000 6
b101000 p
b101000 >"
b100000000001000001000000000000 q
b100000000001000001000000000000 ?"
b100000000001000001000000000000 &
b100000000001000001000000000000 /
b100000000001000001000000000000 s
b1001 %
b1001 .
b1001 r
b100000 '#
b100000 }
b100000 a"
b100000 8
b100000 F
b100100 @"
b100100 a
b100100 R"
b100100 ="
b100100 &"
0'
00
#9500
1'
10
#10000
1c
b101100 ;"
b101100 <"
b10 K"
b10 9
b10 [
b10 P"
b10010 O"
b10010 5"
b100 :"
b100 i
b100 W"
b100 '"
b1000000000000 *"
b1000000000000 l
b1000000000000 Y"
b101100 6
b101100 p
b101100 >"
b1000010010000000000 q
b1000010010000000000 ?"
b1000010010000000000 &
b1000010010000000000 /
b1000010010000000000 s
b1010 %
b1010 .
b1010 r
b100 f
b100 U"
b100 r"
b1000000000000 j
b1000000000000 X"
b1000 J"
b100 C"
b101000 7
b101000 G
b101000 }"
b101000 ="
b101000 &"
b100000000001000001000000000000 A"
b100000000001000001000000000000 k
b101000 @"
b101000 a
b101000 R"
b100100 a"
b100100 8
b100100 F
b100100 '#
b100100 }
0'
00
#10500
1'
10
#11000
0c
b1011 K"
b1011 9
b1011 [
b1011 P"
b1000010 O"
b1000010 5"
b1000000000000 {"
04"
b1000000000000 :
b1000000000000 ?
b1000000000000 |"
b110000 ;"
b110000 <"
b10010000000000 *"
b10010000000000 l
b10010000000000 Y"
b101100 7
b101100 G
b101100 }"
b1000000000000 )"
b1000000000000 z"
b10010000000000 j
b10010000000000 X"
b10000 m
b10000 Z"
b0 J"
b110000 6
b110000 p
b110000 >"
b100000000100000000000000010000 q
b100000000100000000000000010000 ?"
b100000000100000000000000010000 &
b100000000100000000000000010000 /
b100000000100000000000000010000 s
b1011 %
b1011 .
b1011 r
b101000 '#
b101000 }
b100 f"
b100 L
b100 5#
b100 i"
b100 O
b100 p"
b100 !#
b1000000000000 k"
b1000000000000 Q
b1000000000000 j"
b1000000000000 P
b10 ["
b10 >
b10 w"
b101000 a"
b100000000101000 8
b101000 F
1c"
1I
b1000010010000000000 A"
b1000010010000000000 k
b101100 @"
b101100 a
b101100 R"
b101100 ="
b101100 &"
0'
00
#11500
1'
10
#12000
1c
b1000000000000 Z
b1000000000000 ~"
b10 K"
b10 9
b10 [
b10 P"
b10010 O"
b10010 5"
b110100 ;"
b110100 <"
b10000000000000000000000000000 {"
04"
b10000000000000000000000000000 :
b10000000000000000000000000000 ?
b10000000000000000000000000000 |"
0;#
0Y
b10000 :"
b10000 i
b10000 W"
b10000 '"
b10000 *"
b10000 l
b10000 Y"
b1000000000000 X
b1000000000000 T
b110100 6
b110100 p
b110100 >"
b10101100100100000000000000000000 q
b10101100100100000000000000000000 ?"
b10101100100100000000000000000000 &
b10101100100100000000000000000000 /
b10101100100100000000000000000000 s
b1100 %
b1100 .
b1100 r
b10000 f
b10000 U"
b10000 r"
b10000 j
b10000 X"
b0 m
b0 Z"
b10000 I"
b1000 J"
b10000 C"
b110000 7
b110000 G
b110000 }"
b1000000000000 )"
b1000000000000 z"
b1000000000000 u
b1000000000000 #"
b1000000000000 -#
b10000000000 !
b10000000000 2
b10000000000 ;
b110000 ="
b110000 &"
b100000000100000000000000010000 A"
b100000000100000000000000010000 k
b110000 @"
b110000 a
b110000 R"
b10010000000000 k"
b10010000000000 Q
b10010000000000 j"
b10010000000000 P
b10000 l"
b10000 R
b10000 x"
b1011 ["
b1011 >
b1011 w"
b101100 a"
b1001000000101100 8
b101100 F
0c"
0I
b100 +#
b100 $"
b100 .#
b100 6#
b101100 '#
b101100 }
b1000000000000 "#
b1000000000000 w
0'
00
#12500
1'
10
#13000
1L"
1_
0N"
0("
0b
1;#
1Y
b10000 {"
b10000 :
b10000 ?
b10000 |"
b111000 ;"
b111000 <"
b0 Z
b0 ~"
b1000000000000 +"
b10000000000000000000000000000 X
b10000000000000000000000000000 T
b0 *"
b0 l
b0 Y"
b1000000000000 0"
b1000000000000 7"
b1000000000000 G"
b1000000000000 -"
b1000000000000 #
b1000000000000 4
b1000000000000 =
b10000000000000000000000000000 u
b10000000000000000000000000000 #"
b10000000000000000000000000000 -#
b0 !
b0 2
b0 ;
b110100 7
b110100 G
b110100 }"
b10000 )"
b10000 z"
b100 d
b100 S"
b100 q"
b0 j
b0 X"
b0 I"
b101011 J"
b100 B"
b111000 6
b111000 p
b111000 >"
b100000000100010000000000011111 q
b100000000100010000000000011111 ?"
b100000000100010000000000011111 &
b100000000100010000000000011111 /
b100000000100010000000000011111 s
b1101 %
b1101 .
b1101 r
b100 3#
b100 3"
b100 7#
b100 6"
b100 F"
b1000000000000 2#
b1000000000000 2"
b110000 '#
b110000 }
b1000000000000 )#
b1000000000000 !"
b10000000000000000000000000000 "#
b10000000000000000000000000000 w
b10000 f"
b10000 L
b10000 5#
b10000 i"
b10000 O
b10000 p"
b10000 !#
b10000 k"
b10000 Q
b10000 j"
b10000 P
b0 l"
b0 R
b0 x"
b10 ["
b10 >
b10 w"
b110000 a"
b1110000 8
b110000 F
1c"
1I
b10101100100100000000000000000000 A"
b10101100100100000000000000000000 k
b110100 @"
b110100 a
b110100 R"
b110100 ="
b110100 &"
0'
00
#13500
b1000000000000 8"
b1000000000000 D"
b1000000000000 e
b1000000000000 T"
1'
10
#14000
b10000 Z
b10000 ~"
0L"
0_
1N"
1("
1b
b10000000000000000000000000000 {"
b10000000000000000000000000000 :
b10000000000000000000000000000 ?
b10000000000000000000000000000 |"
b111100 ;"
b111100 <"
0;#
0Y
09#
0U
18#
1S
b10001 :"
b10001 i
b10001 W"
b10001 '"
b11111 *"
b11111 l
b11111 Y"
b0 +"
b10000 X
b10000000000000000000000000000 T
b111100 6
b111100 p
b111100 >"
b10101100100100010000000000000100 q
b10101100100100010000000000000100 ?"
b10101100100100010000000000000100 &
b10101100100100010000000000000100 /
b10101100100100010000000000000100 s
b1110 %
b1110 .
b1110 r
b10001 f
b10001 U"
b10001 r"
b0 d
b0 S"
b0 q"
b11111 j
b11111 X"
b11111 I"
b1000 J"
b10001 C"
b0 B"
b0 8"
b0 D"
b0 e
b0 T"
b0 )"
b0 z"
b10000000000000000000000000000 V
b10000000000000000000000000000 y"
b111000 7
b111000 G
b111000 }"
b0 -"
b0 #
b0 4
b0 =
b10000 u
b10000 #"
b10000 -#
b100 !
b100 2
b100 ;
b10000000000000000000000000000 0"
b10000000000000000000000000000 7"
b10000000000000000000000000000 G"
b111000 ="
b111000 &"
b100000000100010000000000011111 A"
b100000000100010000000000011111 k
b111000 @"
b111000 a
b111000 R"
b100 d"
b100 J
b100 4#
b0 k"
b0 Q
b0 j"
b0 P
b1000000000000 e"
b1000000000000 K
b110100 a"
b110100 8
b110100 F
1_"
1D
0b"
0H
b10000 +#
b10000 $"
b10000 .#
b10000 6#
b110100 '#
b110100 }
b0 )#
b0 !"
b10000 "#
b10000 w
b10000000000000000000000000000 2#
b10000000000000000000000000000 2"
0'
00
#14500
1'
10
#15000
b11111 {"
b11111 :
b11111 ?
b11111 |"
1L"
1_
0N"
0("
0b
1;#
1Y
19#
1U
08#
0S
b1000000 ;"
b1000000 <"
b0 V
b0 y"
b0 Z
b0 ~"
b10000000000000000000000000000 T
b10000 +"
b10000000000000000000000000000 X
b100 *"
b100 l
b100 Y"
b10000 0"
b10000 7"
b10000 G"
b10000 -"
b10000 #
b10000 4
b10000 =
b10000000000000000000000000000 u
b10000000000000000000000000000 #"
b10000000000000000000000000000 -#
b0 !
b0 2
b0 ;
b11111 )"
b11111 z"
b111100 7
b111100 G
b111100 }"
b100 d
b100 S"
b100 q"
b100 j
b100 X"
b100 I"
b101011 J"
b100 B"
b10000000000000000000000000000 8"
b10000000000000000000000000000 D"
b10000000000000000000000000000 e
b10000000000000000000000000000 T"
b1000000 6
b1000000 p
b1000000 >"
b10000100011001000000100000 q
b10000100011001000000100000 ?"
b10000100011001000000100000 &
b10000100011001000000100000 /
b10000100011001000000100000 s
b1111 %
b1111 .
b1111 r
b10000 3#
b10000 3"
b10000 7#
b10000 6"
b10000 F"
b10000 2#
b10000 2"
b111000 '#
b111000 }
b10000 )#
b10000 !"
b10000000000000000000000000000 "#
b10000000000000000000000000000 w
1%#
1{
1$
0(#
0~
b10001 f"
b10001 L
b10001 5#
b0 d"
b0 J
b0 4#
b10001 i"
b10001 O
b10001 p"
b10001 !#
b11111 k"
b11111 Q
b11111 j"
b11111 P
b0 e"
b0 K
b111000 a"
b10110100 8
b111000 F
0_"
0D
1b"
1H
b10101100100100010000000000000100 A"
b10101100100100010000000000000100 k
b111100 @"
b111100 a
b111100 R"
b111100 ="
b111100 &"
0'
00
#15500
b10000 ,"
b10000 v
b10000 x
b10000 ,#
b10000 "
b10000 3
b10000 <
1'
10
#16000
b10010 :"
b10010 i
b10010 W"
b10010 '"
0c
b11111 Z
b11111 ~"
0L"
0_
1N"
1("
1b
b1000010 O"
b1000010 5"
b10000000000000000000000000100 {"
b10000000000000000000000000100 :
b10000000000000000000000000100 ?
b10000000000000000000000000100 |"
b1000100 ;"
b1000100 <"
0;#
0Y
b0 ,"
b11111111111111111001000000100000 *"
b11111111111111111001000000100000 l
b11111111111111111001000000100000 Y"
b0 +"
b11111 X
b11111 T
b0 v
b0 x
b0 ,#
b1000100 6
b1000100 p
b1000100 >"
b10101100100100100000000000001000 q
b10101100100100100000000000001000 ?"
b10101100100100100000000000001000 &
b10101100100100100000000000001000 /
b10101100100100100000000000001000 s
b10000 %
b10000 .
b10000 r
b10000 d
b10000 S"
b10000 q"
b1001000000100000 j
b1001000000100000 X"
b100000 I"
b0 J"
b10000 B"
b10000 8"
b10000 D"
b10000 e
b10000 T"
b100 )"
b100 z"
b10000000000000000000000000000 V
b10000000000000000000000000000 y"
b1000000 7
b1000000 G
b1000000 }"
b0 -"
b0 #
b0 4
b0 =
b11111 u
b11111 #"
b11111 -#
b0 "
b0 3
b0 <
b111 !
b111 2
b111 ;
b10000000000000000000000000000 0"
b10000000000000000000000000000 7"
b10000000000000000000000000000 G"
b1000000 ="
b1000000 &"
b10000100011001000000100000 A"
b10000100011001000000100000 k
b1000000 @"
b1000000 a
b1000000 R"
b100 d"
b100 J
b100 4#
b100 k"
b100 Q
b100 j"
b100 P
b10000000000000000000000000000 e"
b10000000000000000000000000000 K
b111100 a"
b1001100 8
b111100 F
1_"
1D
0b"
0H
b10001 +#
b10001 $"
b10001 .#
b10001 6#
b111100 '#
b111100 }
b0 )#
b0 !"
b11111 "#
b11111 w
0%#
0{
0$
1(#
1~
b10000000000000000000000000000 2#
b10000000000000000000000000000 2"
b10000 /#
b10000 ."
01#
01"
0'
00
#16500
1'
10
