HW4/F74046242/SRC/top.vcd
$date
	Mon Jun 19 21:01:45 2017
$end
$version
	Icarus Verilog
$end
$timescale
	10ps
$end
$scope module testfixture1 $end
$var wire 16 ! DM_Address [15:0] $end
$var wire 32 " DM_Read_Data [31:0] $end
$var wire 32 # DM_Write_Data [31:0] $end
$var wire 1 $ DM_en_Read $end
$var wire 1 % DM_en_Write $end
$var wire 1 & IC_stall $end
$var wire 16 ' IM_Address [15:0] $end
$var wire 1 ( IM_en_Read $end
$var wire 32 ) I_cache_out [31:0] $end
$var wire 32 * Instruction [31:0] $end
$var reg 1 + clk $end
$var integer 32 , cycle_cnt [31:0] $end
$var reg 1 - err_R $end
$var integer 32 . i [31:0] $end
$var reg 1 / rst $end
$var real 1 0 hit_rate $end
$var real 1 1 instr_cnt $end
$var real 1 2 miss_cnt_double $end
$scope module IM1 $end
$var wire 16 3 IM_Address [15:0] $end
$var wire 1 ( IM_en_Read $end
$var wire 32 4 Instruction [31:0] $end
$var wire 1 5 clk $end
$var wire 1 6 rst $end
$var reg 1 7 cur_state $end
$var reg 1 8 nxt_state $end
$var reg 16 9 r_IM_Addr [15:0] $end
$upscope $end
$scope module DM1 $end
$var wire 16 : DM_Address [15:0] $end
$var wire 32 ; DM_Read_Data [31:0] $end
$var wire 32 < DM_Write_Data [31:0] $end
$var wire 1 $ DM_en_Read $end
$var wire 1 % DM_en_Write $end
$var wire 1 5 clk $end
$var wire 1 6 rst $end
$var reg 1 = cur_state $end
$var integer 32 > i [31:0] $end
$var reg 1 ? nxt_state $end
$var reg 16 @ r_DM_Addr [15:0] $end
$upscope $end
$scope module top1 $end
$var wire 16 A DC_Address [15:0] $end
$var wire 1 B DC_Read_enable $end
$var wire 32 C DC_Write_Data [31:0] $end
$var wire 1 D DC_Write_enable $end
$var wire 1 E DC_stall $end
$var wire 16 F DM_Address [15:0] $end
$var wire 32 G DM_Read_Data [31:0] $end
$var wire 32 H DM_Write_Data [31:0] $end
$var wire 1 $ DM_en_Read $end
$var wire 1 % DM_en_Write $end
$var wire 32 I D_cache_out [31:0] $end
$var wire 16 J IC_Address [15:0] $end
$var wire 1 K IC_stall $end
$var wire 1 & IC_stall_out $end
$var wire 16 L IM_Address [15:0] $end
$var wire 1 ( IM_en_Read $end
$var wire 32 M I_cache_instr_out [31:0] $end
$var wire 32 N I_cache_out [31:0] $end
$var wire 32 O Instruction [31:0] $end
$var wire 1 5 clk $end
$var wire 1 6 rst $end
$scope module I_cache $end
$var wire 1 P Data_enable $end
$var wire 32 Q Data_in [31:0] $end
$var wire 1 R Tag_enable $end
$var wire 11 S Tag_out [10:0] $end
$var wire 1 T Valid_enable $end
$var wire 1 U Valid_out $end
$var wire 16 V cache_addr [15:0] $end
$var wire 32 W cache_in [31:0] $end
$var wire 32 X cache_out [31:0] $end
$var wire 1 5 clk $end
$var wire 1 Y en_R $end
$var wire 1 Z en_W $end
$var wire 1 [ equal $end
$var wire 1 \ hit $end
$var wire 5 ] index_addr [4:0] $end
$var wire 16 ^ mem_addr [15:0] $end
$var wire 1 ( mem_en_R $end
$var wire 1 _ mem_en_W $end
$var wire 32 ` mem_in [31:0] $end
$var wire 32 a mem_out [31:0] $end
$var wire 1 6 rst $end
$var wire 1 b sel_mem_core $end
$var wire 1 K stall $end
$var wire 11 c tag_addr [10:0] $end
$scope module Cache_Control1 $end
$var wire 1 5 clk $end
$var wire 1 Y en_R $end
$var wire 1 Z en_W $end
$var wire 1 \ hit $end
$var wire 1 6 rst $end
$var reg 1 d Data_enable $end
$var reg 1 e Read_mem $end
$var reg 1 f Tag_enable $end
$var reg 1 g Valid_enable $end
$var reg 1 h Write_mem $end
$var reg 2 i cur_state [1:0] $end
$var reg 2 j nxt_state [1:0] $end
$var reg 1 k sel_mem_core $end
$var reg 1 l stall $end
$upscope $end
$scope module Cache_valid1 $end
$var wire 5 m Valid_Address [4:0] $end
$var wire 1 T Valid_enable $end
$var wire 1 n Valid_in $end
$var wire 1 U Valid_out $end
$var wire 1 5 clk $end
$var wire 1 6 rst $end
$var integer 32 o i [31:0] $end
$upscope $end
$scope module Cache_tag1 $end
$var wire 5 p Tag_Address [4:0] $end
$var wire 1 R Tag_enable $end
$var wire 11 q Tag_in [10:0] $end
$var wire 11 r Tag_out [10:0] $end
$var wire 1 5 clk $end
$var wire 1 6 rst $end
$var integer 32 s i [31:0] $end
$upscope $end
$scope module Cache_data1 $end
$var wire 5 t Data_Address [4:0] $end
$var wire 1 P Data_enable $end
$var wire 32 u Data_in [31:0] $end
$var wire 32 v Data_out [31:0] $end
$var wire 1 5 clk $end
$var wire 1 6 rst $end
$var integer 32 w i [31:0] $end
$upscope $end
$upscope $end
$scope module D_cache $end
$var wire 1 x Data_enable $end
$var wire 32 y Data_in [31:0] $end
$var wire 1 z Tag_enable $end
$var wire 11 { Tag_out [10:0] $end
$var wire 1 | Valid_enable $end
$var wire 1 } Valid_out $end
$var wire 16 ~ cache_addr [15:0] $end
$var wire 32 !" cache_in [31:0] $end
$var wire 32 "" cache_out [31:0] $end
$var wire 1 5 clk $end
$var wire 1 B en_R $end
$var wire 1 D en_W $end
$var wire 1 #" equal $end
$var wire 1 $" hit $end
$var wire 5 %" index_addr [4:0] $end
$var wire 16 &" mem_addr [15:0] $end
$var wire 1 $ mem_en_R $end
$var wire 1 % mem_en_W $end
$var wire 32 '" mem_in [31:0] $end
$var wire 32 (" mem_out [31:0] $end
$var wire 1 6 rst $end
$var wire 1 )" sel_mem_core $end
$var wire 1 E stall $end
$var wire 11 *" tag_addr [10:0] $end
$scope module Cache_Control1 $end
$var wire 1 5 clk $end
$var wire 1 B en_R $end
$var wire 1 D en_W $end
$var wire 1 $" hit $end
$var wire 1 6 rst $end
$var reg 1 +" Data_enable $end
$var reg 1 ," Read_mem $end
$var reg 1 -" Tag_enable $end
$var reg 1 ." Valid_enable $end
$var reg 1 /" Write_mem $end
$var reg 2 0" cur_state [1:0] $end
$var reg 2 1" nxt_state [1:0] $end
$var reg 1 2" sel_mem_core $end
$var reg 1 3" stall $end
$upscope $end
$scope module Cache_valid1 $end
$var wire 5 4" Valid_Address [4:0] $end
$var wire 1 | Valid_enable $end
$var wire 1 5" Valid_in $end
$var wire 1 } Valid_out $end
$var wire 1 5 clk $end
$var wire 1 6 rst $end
$var integer 32 6" i [31:0] $end
$upscope $end
$scope module Cache_tag1 $end
$var wire 5 7" Tag_Address [4:0] $end
$var wire 1 z Tag_enable $end
$var wire 11 8" Tag_in [10:0] $end
$var wire 11 9" Tag_out [10:0] $end
$var wire 1 5 clk $end
$var wire 1 6 rst $end
$var integer 32 :" i [31:0] $end
$upscope $end
$scope module Cache_data1 $end
$var wire 5 ;" Data_Address [4:0] $end
$var wire 1 x Data_enable $end
$var wire 32 <" Data_in [31:0] $end
$var wire 32 =" Data_out [31:0] $end
$var wire 1 5 clk $end
$var wire 1 6 rst $end
$var integer 32 >" i [31:0] $end
$upscope $end
$upscope $end
$scope module core1 $end
$var wire 18 ?" ADD1 [17:0] $end
$var wire 18 @" ADD2 [17:0] $end
$var wire 18 A" ADD3 [17:0] $end
$var wire 4 B" ALUOp [3:0] $end
$var wire 32 C" ALU_result [31:0] $end
$var wire 16 D" DC_Address [15:0] $end
$var wire 32 E" DC_Read_Data [31:0] $end
$var wire 1 B DC_Read_enable $end
$var wire 32 F" DC_Write_Data [31:0] $end
$var wire 1 D DC_Write_enable $end
$var wire 1 E DC_stall $end
$var wire 4 G" EX_ALUOp [3:0] $end
$var wire 32 H" EX_ALU_result [31:0] $end
$var wire 3 I" EX_J_Mode [2:0] $end
$var wire 1 J" EX_Jal $end
$var wire 2 K" EX_JumpOP [1:0] $end
$var wire 1 L" EX_Lh $end
$var wire 1 M" EX_MemRead $end
$var wire 1 N" EX_MemWrite $end
$var wire 1 O" EX_MemtoReg $end
$var wire 18 P" EX_PC [17:0] $end
$var wire 18 Q" EX_PCplus8 [17:0] $end
$var wire 1 R" EX_RegWrite $end
$var wire 1 S" EX_Reg_imm $end
$var wire 5 T" EX_Rs [4:0] $end
$var wire 32 U" EX_Rs_data [31:0] $end
$var wire 5 V" EX_Rt [4:0] $end
$var wire 32 W" EX_Rt_data [31:0] $end
$var wire 1 X" EX_Sh $end
$var wire 5 Y" EX_WR_out [4:0] $end
$var wire 16 Z" EX_imm [15:0] $end
$var wire 32 [" EX_se_imm [31:0] $end
$var wire 5 \" EX_shamt [4:0] $end
$var wire 1 ]" ForwardA $end
$var wire 32 ^" ForwardA_Out [31:0] $end
$var wire 1 _" ForwardB $end
$var wire 32 `" ForwardB_Out [31:0] $end
$var wire 1 a" ForwardC $end
$var wire 32 b" ForwardC_Out [31:0] $end
$var wire 1 c" ForwardD $end
$var wire 32 d" ForwardD_Out [31:0] $end
$var wire 16 e" IC_Address [15:0] $end
$var wire 1 K IC_stall $end
$var wire 4 f" ID_ALUOp [3:0] $end
$var wire 1 g" ID_Flush $end
$var wire 1 h" ID_Jal $end
$var wire 1 i" ID_Lh $end
$var wire 1 j" ID_MemRead $end
$var wire 1 k" ID_MemWrite $end
$var wire 1 l" ID_MemtoReg $end
$var wire 18 m" ID_PC [17:0] $end
$var wire 1 n" ID_RegWrite $end
$var wire 1 o" ID_Reg_imm $end
$var wire 5 p" ID_Rs [4:0] $end
$var wire 32 q" ID_Rs_data [31:0] $end
$var wire 5 r" ID_Rt [4:0] $end
$var wire 32 s" ID_Rt_data [31:0] $end
$var wire 1 t" ID_Sh $end
$var wire 5 u" ID_WR_out [4:0] $end
$var wire 16 v" ID_imm [15:0] $end
$var wire 32 w" ID_ir [31:0] $end
$var wire 32 x" ID_se_imm [31:0] $end
$var wire 5 y" ID_shamt [4:0] $end
$var wire 1 z" IF_Flush $end
$var wire 1 {" IF_IDWrite $end
$var wire 18 |" IF_PC [17:0] $end
$var wire 32 }" IF_ir [31:0] $end
$var wire 32 ~" Instruction [31:0] $end
$var wire 3 !# J_Mode [2:0] $end
$var wire 32 "# Jal_Out [31:0] $end
$var wire 32 ## LwLh_Out [31:0] $end
$var wire 32 $# M_ALU_result [31:0] $end
$var wire 32 %# M_DM_Read_Data [31:0] $end
$var wire 1 &# M_Jal $end
$var wire 1 '# M_Lh $end
$var wire 1 (# M_MemRead $end
$var wire 1 )# M_MemWrite $end
$var wire 1 *# M_MemtoReg $end
$var wire 18 +# M_PCplus8 [17:0] $end
$var wire 1 ,# M_RegWrite $end
$var wire 32 -# M_Rt_data [31:0] $end
$var wire 1 .# M_Sh $end
$var wire 32 /# M_WD_out [31:0] $end
$var wire 5 0# M_WR_out [4:0] $end
$var wire 1 1# PCWrite $end
$var wire 18 2# PCout [17:0] $end
$var wire 5 3# RegDst_Out [4:0] $end
$var wire 1 4# RegWrite $end
$var wire 32 5# Reg_imm_Out [31:0] $end
$var wire 32 6# SignExtension1 [31:0] $end
$var wire 32 7# SignExtension2 [31:0] $end
$var wire 32 8# SignExtension3 [31:0] $end
$var wire 32 9# SwSh_Out [31:0] $end
$var wire 32 :# WB_DM_Read_Data [31:0] $end
$var wire 1 ;# WB_MemtoReg $end
$var wire 32 <# WB_Out [31:0] $end
$var wire 1 =# WB_RegWrite $end
$var wire 32 ># WB_WD_out [31:0] $end
$var wire 5 ?# WB_WR_out [4:0] $end
$var wire 1 @# Zero $end
$var wire 1 5 clk $end
$var wire 7 A# mux [6:0] $end
$var wire 5 B# reg_write_addr [4:0] $end
$var wire 32 C# reg_write_data [31:0] $end
$var wire 1 6 rst $end
$var wire 32 D# src1 [31:0] $end
$var wire 32 E# src2 [31:0] $end
$var wire 5 F# wrAddress_Out [4:0] $end
$var reg 18 G# PCin [17:0] $end
$scope module pc $end
$var wire 1 1# PCWrite $end
$var wire 18 H# PCin [17:0] $end
$var wire 1 5 clk $end
$var wire 1 6 rst $end
$var reg 18 I# PCout [17:0] $end
$upscope $end
$scope module if_id $end
$var wire 1 z" IF_Flush $end
$var wire 1 {" IF_IDWrite $end
$var wire 18 J# IF_PC [17:0] $end
$var wire 32 K# IF_ir [31:0] $end
$var wire 1 5 clk $end
$var wire 1 6 rst $end
$var reg 18 L# ID_PC [17:0] $end
$var reg 32 M# ID_ir [31:0] $end
$upscope $end
$scope module regfile $end
$var wire 5 N# Read_addr_1 [4:0] $end
$var wire 5 O# Read_addr_2 [4:0] $end
$var wire 32 P# Read_data_1 [31:0] $end
$var wire 32 Q# Read_data_2 [31:0] $end
$var wire 1 =# RegWrite $end
$var wire 5 R# Write_addr [4:0] $end
$var wire 32 S# Write_data [31:0] $end
$var wire 1 5 clk $end
$var wire 1 6 rst $end
$var integer 32 T# i [31:0] $end
$upscope $end
$scope module ctrler $end
$var wire 6 U# funct [5:0] $end
$var wire 6 V# opcode [5:0] $end
$var reg 4 W# ALUOp [3:0] $end
$var reg 1 X# DC_r_enable $end
$var reg 1 Y# DC_w_enable $end
$var reg 3 Z# J_Mode [2:0] $end
$var reg 1 [# RegWrite $end
$var reg 7 \# mux [6:0] $end
$upscope $end
$scope module id_ex $end
$var wire 4 ]# ID_ALUOp [3:0] $end
$var wire 1 g" ID_Flush $end
$var wire 3 ^# ID_J_Mode [2:0] $end
$var wire 1 h" ID_Jal $end
$var wire 1 i" ID_Lh $end
$var wire 1 j" ID_MemRead $end
$var wire 1 k" ID_MemWrite $end
$var wire 1 l" ID_MemtoReg $end
$var wire 18 _# ID_PC [17:0] $end
$var wire 1 n" ID_RegWrite $end
$var wire 1 o" ID_Reg_imm $end
$var wire 5 `# ID_Rs [4:0] $end
$var wire 32 a# ID_Rs_data [31:0] $end
$var wire 5 b# ID_Rt [4:0] $end
$var wire 32 c# ID_Rt_data [31:0] $end
$var wire 1 t" ID_Sh $end
$var wire 5 d# ID_WR_out [4:0] $end
$var wire 16 e# ID_imm [15:0] $end
$var wire 32 f# ID_se_imm [31:0] $end
$var wire 5 g# ID_shamt [4:0] $end
$var wire 1 5 clk $end
$var wire 1 6 rst $end
$var reg 4 h# EX_ALUOp [3:0] $end
$var reg 3 i# EX_J_Mode [2:0] $end
$var reg 1 j# EX_Jal $end
$var reg 1 k# EX_Lh $end
$var reg 1 l# EX_MemRead $end
$var reg 1 m# EX_MemWrite $end
$var reg 1 n# EX_MemtoReg $end
$var reg 18 o# EX_PC [17:0] $end
$var reg 1 p# EX_RegWrite $end
$var reg 1 q# EX_Reg_imm $end
$var reg 5 r# EX_Rs [4:0] $end
$var reg 32 s# EX_Rs_data [31:0] $end
$var reg 5 t# EX_Rt [4:0] $end
$var reg 32 u# EX_Rt_data [31:0] $end
$var reg 1 v# EX_Sh $end
$var reg 5 w# EX_WR_out [4:0] $end
$var reg 16 x# EX_imm [15:0] $end
$var reg 32 y# EX_se_imm [31:0] $end
$var reg 5 z# EX_shamt [4:0] $end
$upscope $end
$scope module jCtrl $end
$var wire 3 {# J_Mode [2:0] $end
$var wire 1 @# Zero $end
$var reg 2 |# JumpOP [1:0] $end
$upscope $end
$scope module hdu $end
$var wire 1 E DC_stall $end
$var wire 2 }# EX_JumpOP [1:0] $end
$var wire 1 O" EX_MemtoReg $end
$var wire 5 ~# EX_WR_out [4:0] $end
$var wire 1 K IC_stall $end
$var wire 5 !$ ID_Rs [4:0] $end
$var wire 5 "$ ID_Rt [4:0] $end
$var reg 1 #$ ID_Flush $end
$var reg 1 $$ IF_Flush $end
$var reg 1 %$ IF_IDWrite $end
$var reg 1 &$ PCWrite $end
$upscope $end
$scope module alu $end
$var wire 4 '$ ALUOp [3:0] $end
$var wire 1 @# Zero $end
$var wire 5 ($ shamt [4:0] $end
$var wire 32 )$ src1 [31:0] $end
$var wire 32 *$ src2 [31:0] $end
$var reg 32 +$ ALU_result [31:0] $end
$upscope $end
$scope module ex_m $end
$var wire 32 ,$ EX_ALU_result [31:0] $end
$var wire 1 J" EX_Jal $end
$var wire 1 L" EX_Lh $end
$var wire 1 M" EX_MemRead $end
$var wire 1 N" EX_MemWrite $end
$var wire 1 O" EX_MemtoReg $end
$var wire 18 -$ EX_PCplus8 [17:0] $end
$var wire 1 R" EX_RegWrite $end
$var wire 32 .$ EX_Rt_data [31:0] $end
$var wire 1 X" EX_Sh $end
$var wire 5 /$ EX_WR_out [4:0] $end
$var wire 1 5 clk $end
$var wire 1 6 rst $end
$var reg 32 0$ M_ALU_result [31:0] $end
$var reg 1 1$ M_Jal $end
$var reg 1 2$ M_Lh $end
$var reg 1 3$ M_MemRead $end
$var reg 1 4$ M_MemWrite $end
$var reg 1 5$ M_MemtoReg $end
$var reg 18 6$ M_PCplus8 [17:0] $end
$var reg 1 7$ M_RegWrite $end
$var reg 32 8$ M_Rt_data [31:0] $end
$var reg 1 9$ M_Sh $end
$var reg 5 :$ M_WR_out [4:0] $end
$upscope $end
$scope module m_wb $end
$var wire 32 ;$ M_DM_Read_Data [31:0] $end
$var wire 1 *# M_MemtoReg $end
$var wire 1 ,# M_RegWrite $end
$var wire 32 <$ M_WD_out [31:0] $end
$var wire 5 =$ M_WR_out [4:0] $end
$var wire 1 5 clk $end
$var wire 1 6 rst $end
$var reg 32 >$ WB_DM_Read_Data [31:0] $end
$var reg 1 ?$ WB_MemtoReg $end
$var reg 1 @$ WB_RegWrite $end
$var reg 32 A$ WB_WD_out [31:0] $end
$var reg 5 B$ WB_WR_out [4:0] $end
$upscope $end
$scope module fu $end
$var wire 5 C$ EX_Rs [4:0] $end
$var wire 5 D$ EX_Rt [4:0] $end
$var wire 1 ,# M_RegWrite $end
$var wire 5 E$ M_WR_out [4:0] $end
$var wire 1 =# WB_RegWrite $end
$var wire 5 F$ WB_WR_out [4:0] $end
$var reg 1 G$ ForwardA $end
$var reg 1 H$ ForwardB $end
$var reg 1 I$ ForwardC $end
$var reg 1 J$ ForwardD $end
$upscope $end
$upscope $end
$upscope $end
$upscope $end
$enddefinitions $end
#0
$dumpvars
xJ$
xI$
xH$
xG$
bx F$
bx E$
bx D$
bx C$
bx B$
bx A$
x@$
x?$
bx >$
bx =$
bx <$
bx ;$
bx :$
x9$
bx 8$
x7$
bx 6$
x5$
x4$
x3$
x2$
x1$
bx 0$
bx /$
bx .$
bx -$
b0 ,$
b0 +$
bx *$
bx )$
bx ($
bx '$
1&$
1%$
0$$
0#$
bx "$
bx !$
bx ~#
b0 }#
b0 |#
bx {#
bx z#
bx y#
bx x#
bx w#
xv#
bx u#
bx t#
bx s#
bx r#
xq#
xp#
bx o#
xn#
xm#
xl#
xk#
xj#
bx i#
bx h#
bx g#
bx f#
bx e#
bx d#
bx c#
bx b#
bx a#
bx `#
bx _#
bx ^#
bx ]#
bx \#
0[#
bx Z#
0Y#
xX#
bx W#
bx V#
bx U#
bx T#
bx S#
bx R#
bx Q#
bx P#
bx O#
bx N#
bx M#
bx L#
bx K#
bx J#
bx I#
bx H#
bx G#
bx F#
bx E#
bx D#
bx C#
bx B#
bx A#
1@#
bx ?#
bx >#
x=#
bx <#
x;#
bx :#
bx 9#
bx 8#
bx 7#
bx 6#
bx 5#
04#
bx 3#
bx 2#
11#
bx 0#
bx /#
x.#
bx -#
x,#
bx +#
x*#
x)#
x(#
x'#
x&#
bx %#
bx $#
bx ##
bx "#
bx !#
bx ~"
bx }"
bx |"
1{"
0z"
bx y"
bx x"
bx w"
bx v"
bx u"
xt"
bx s"
bx r"
bx q"
bx p"
xo"
0n"
bx m"
xl"
0k"
xj"
xi"
xh"
0g"
bx f"
bx e"
bx d"
xc"
bx b"
xa"
bx `"
x_"
bx ^"
x]"
bx \"
bx ["
bx Z"
bx Y"
xX"
bx W"
bx V"
bx U"
bx T"
xS"
xR"
bx Q"
bx P"
xO"
xN"
xM"
xL"
b0 K"
xJ"
bx I"
b0 H"
bx G"
bx F"
bx E"
bx D"
b0 C"
bx B"
bx A"
bx @"
bx ?"
bx >"
bx ="
bx <"
bx ;"
bx :"
bx 9"
bx 8"
bx 7"
bx 6"
15"
bx 4"
x3"
x2"
bx 1"
bx 0"
x/"
x."
x-"
x,"
x+"
bx *"
x)"
bx ("
bx '"
bx &"
bx %"
x$"
x#"
bx ""
bx !"
bx ~
x}
x|
bx {
xz
bx y
xx
bx w
bx v
bx u
bx t
bx s
bx r
bx q
bx p
bx o
1n
bx m
xl
xk
bx j
bx i
xh
xg
xf
xe
xd
bx c
xb
bx a
bz `
x_
bx ^
bx ]
x\
x[
0Z
1Y
bx X
bz W
bx V
xU
xT
bx S
xR
bx Q
xP
bx O
bx N
bx M
bx L
xK
bx J
bx I
bx H
bx G
bx F
xE
xD
bx C
xB
bx A
bx @
x?
bx >
x=
bx <
bx ;
bx :
bx 9
x8
x7
06
05
bx 4
bx 3
r0 2
r0 1
r0 0
0/
bx .
1-
bx ,
0+
bx *
bx )
x(
bx '
x&
x%
x$
bx #
bx "
bx !
$end
#500
0l
0K
0&
0k
0b
0d
0P
0f
0R
0g
0T
0h
0_
0e
0(
03"
0E
02"
0)"
0+"
0x
0-"
0z
0."
0|
0/"
0%
0,"
0$
1+
15
#600
b0 F#
b0 u"
b0 d#
0o"
0t"
0i"
0h"
1l"
b111 Z#
b111 !#
b111 ^#
0X#
0j"
1[#
14#
1n"
b1011 W#
b1011 B"
b1011 f"
b1011 ]#
b1000010 \#
b1000010 A#
1J$
1c"
0I$
0a"
1H$
1_"
0G$
0]"
b100 G#
b100 H#
b0 +$
1@#
b0 C"
b0 H"
b0 ,$
b1 1"
b1 j
b0 5#
b0 *$
b0 8#
b0 d"
b0 .$
b0 `"
b0 )$
0$"
b0 ##
b0 %#
b0 ;$
0\
b0 7#
b0 b"
b0 ^"
0}
1#"
b0 {
b0 9"
b0 I
b0 ""
b0 ="
b0 E"
b0 %"
b0 4"
b0 7"
b0 ;"
b0 *"
b0 8"
b0 3#
b0 6#
b0 x"
b0 f#
0U
1[
b0 S
b0 r
b0 }"
b0 K#
b0 N
b0 X
b0 v
b0 ~"
b0 )
b0 M
b0 ]
b0 m
b0 p
b0 t
b0 c
b0 q
b0 <#
b0 C#
b0 S#
b0 9#
b0 #
b0 <
b0 H
b0 '"
b0 C
b0 !"
b0 F"
b0 "#
b0 /#
b0 <$
b0 !
b0 :
b0 F
b0 &"
b0 A
b0 ~
b0 D"
b0 A"
b100 @"
b100 Q"
b100 -$
b0 r"
b0 b#
b0 "$
b0 p"
b0 `#
b0 !$
b0 v"
b0 e#
b0 y"
b0 g#
b0 U#
b0 V#
b0 O#
b0 E#
b0 Q#
b0 s"
b0 c#
b0 N#
b0 D#
b0 P#
b0 q"
b0 a#
b100 ?"
b100 |"
b100 J#
b0 '
b0 3
b0 L
b0 ^
b0 J
b0 V
b0 e"
0?
b0 y
b0 <"
08
b0 B$
b0 ?#
b0 F$
b0 B#
b0 R#
b0 A$
b0 >#
b0 >$
b0 :#
0@$
0=#
0?$
0;#
09$
0.#
02$
0'#
01$
0&#
b0 :$
b0 0#
b0 =$
b0 E$
b0 6$
b0 +#
b0 8$
b0 -#
b0 0$
b0 $#
04$
0)#
0D
03$
0(#
0B
07$
0,#
05$
0*#
b0 t#
b0 V"
b0 D$
b0 r#
b0 T"
b0 C$
b0 w#
b0 Y"
b0 ~#
b0 /$
b0 y#
b0 ["
b0 x#
b0 Z"
b0 u#
b0 W"
b0 s#
b0 U"
b0 z#
b0 \"
b0 ($
b0 h#
b0 G"
b0 '$
b0 o#
b0 P"
b111 i#
b111 I"
b111 {#
0q#
0S"
0v#
0X"
0k#
0L"
0j#
0J"
0m#
0N"
0l#
0M"
0p#
0R"
0n#
0O"
b0 M#
b0 w"
b0 L#
b0 m"
b0 _#
b0 I#
b0 2#
b0 0"
b0 i
0=
b0 @
b0 "
b0 ;
b0 G
b0 ("
07
b0 9
b100000 T#
b0 ,
b100000 >"
b100000 :"
b100000 6"
b100000 w
b100000 s
b100000 o
b10000000000000000 >
1/
16
#1000
0+
05
#1500
b100000 T#
b10000000000000000 >
b100000 o
b100000 s
b100000 w
b100000 6"
b100000 :"
b100000 >"
1+
15
#1600
b100 6$
b100 +#
b1011 h#
b1011 G"
b1011 '$
1p#
1R"
1n#
1O"
b100 L#
b100 m"
b100 _#
0/
06
#2000
b1000 G#
b1000 H#
b1 ]
b1 m
b1 p
b1 t
b1000 @"
b1000 Q"
b1000 -$
b1000 ?"
b1000 |"
b1000 J#
b1 '
b1 3
b1 L
b1 ^
b1 J
b1 V
b1 e"
b100 o#
b100 A"
b100 P"
17$
1,#
15$
1*#
b100 I#
b100 2#
r1 1
0+
05
#2500
b10 j
18
b1 i
1e
1(
b1 ,
1+
15
#2600
b0 Q
b0 u
b0 *
b0 4
b0 O
b0 a
r1 0
r0 1
b0 ,
#3000
b1100 G#
b1100 H#
b10 ]
b10 m
b10 p
b10 t
b1100 ?"
b1100 |"
b1100 J#
b10 '
b10 3
b10 L
b10 ^
b10 J
b10 V
b10 e"
1@$
1=#
1?$
1;#
b1000 6$
b1000 +#
b1000 L#
b1000 m"
b1000 _#
b1000 I#
b1000 2#
r1 1
0+
05
#3500
b0 j
0&$
01#
1#$
1g"
0%$
0{"
08
17
b10 i
1l
1K
1&
0e
0(
b1 ,
1+
15
#4000
1#$
1g"
0%$
0{"
0&$
01#
b100 @"
b100 Q"
b100 -$
b0 h#
b0 G"
b0 '$
b0 o#
b0 A"
b0 P"
0p#
0R"
0n#
0O"
r1 2
0+
05
#4500
b1 j
1#$
1g"
0%$
0{"
0&$
01#
b0 i
1d
1P
1f
1R
1g
1T
1l
1K
1&
07
b10 9
b10 ,
1+
15
#5000
b100 6$
b100 +#
07$
0,#
05$
0*#
r2 2
0+
05
#5500
b10 j
0#$
0g"
1%$
1{"
1&$
11#
18
1\
b1 i
1e
1(
0l
0K
0&
0d
0P
0f
0R
0g
0T
1U
b11 ,
1+
15
#6000
b10000 G#
b10000 H#
0\
0U
b11 ]
b11 m
b11 p
b11 t
b1100 @"
b1100 Q"
b1100 -$
b10000 ?"
b10000 |"
b10000 J#
b11 '
b11 3
b11 L
b11 ^
b11 J
b11 V
b11 e"
b1100 L#
b1100 m"
b1100 _#
b1011 h#
b1011 G"
b1011 '$
b1000 o#
b1000 A"
b1000 P"
1p#
1R"
1n#
1O"
0@$
0=#
0?$
0;#
b1100 I#
b1100 2#
r2 1
0+
05
#6500
b0 j
0&$
01#
1#$
1g"
0%$
0{"
08
b10 i
1l
1K
1&
0e
0(
17
b100 ,
1+
15
#7000
1#$
1g"
0%$
0{"
0&$
01#
b100 @"
b100 Q"
b100 -$
b1100 6$
b1100 +#
17$
1,#
15$
1*#
b0 h#
b0 G"
b0 '$
b0 o#
b0 A"
b0 P"
0p#
0R"
0n#
0O"
r3 2
0+
05
#7500
b1 j
1#$
1g"
0%$
0{"
0&$
01#
07
b11 9
b0 i
1d
1P
1f
1R
1g
1T
1l
1K
1&
b101 ,
1+
15
#8000
b100 6$
b100 +#
07$
0,#
05$
0*#
1@$
1=#
1?$
1;#
r4 2
0+
05
#8500
b10 j
0#$
0g"
1%$
1{"
1&$
11#
1\
18
1U
b1 i
1e
1(
0l
0K
0&
0d
0P
0f
0R
0g
0T
b110 ,
1+
15
#9000
b10100 G#
b10100 H#
0\
0U
b100 ]
b100 m
b100 p
b100 t
b10000 @"
b10000 Q"
b10000 -$
b10100 ?"
b10100 |"
b10100 J#
b100 '
b100 3
b100 L
b100 ^
b100 J
b100 V
b100 e"
0@$
0=#
0?$
0;#
b1011 h#
b1011 G"
b1011 '$
b1100 o#
b1100 A"
b1100 P"
1p#
1R"
1n#
1O"
b10000 L#
b10000 m"
b10000 _#
b10000 I#
b10000 2#
r3 1
0+
05
#9500
b0 j
0&$
01#
1#$
1g"
0%$
0{"
08
17
b10 i
1l
1K
1&
0e
0(
b111 ,
1+
15
#10000
1#$
1g"
0%$
0{"
0&$
01#
b100 @"
b100 Q"
b100 -$
b0 h#
b0 G"
b0 '$
b0 o#
b0 A"
b0 P"
0p#
0R"
0n#
0O"
b10000 6$
b10000 +#
17$
1,#
15$
1*#
r5 2
0+
05
#10500
b1 j
1#$
1g"
0%$
0{"
0&$
01#
b0 i
1d
1P
1f
1R
1g
1T
1l
1K
1&
07
b100 9
b1000 ,
1+
15
#11000
1@$
1=#
1?$
1;#
b100 6$
b100 +#
07$
0,#
05$
0*#
r6 2
0+
05
#11500
b10 j
0#$
0g"
1%$
1{"
1&$
11#
18
1\
b1 i
1e
1(
0l
0K
0&
0d
0P
0f
0R
0g
0T
1U
b1001 ,
1+
15
#12000
b11000 G#
b11000 H#
0\
0U
b101 ]
b101 m
b101 p
b101 t
b10100 @"
b10100 Q"
b10100 -$
b11000 ?"
b11000 |"
b11000 J#
b101 '
b101 3
b101 L
b101 ^
b101 J
b101 V
b101 e"
b10100 L#
b10100 m"
b10100 _#
b1011 h#
b1011 G"
b1011 '$
b10000 o#
b10000 A"
b10000 P"
1p#
1R"
1n#
1O"
0@$
0=#
0?$
0;#
b10100 I#
b10100 2#
r4 1
0+
05
#12500
b0 j
0&$
01#
1#$
1g"
0%$
0{"
08
b10 i
1l
1K
1&
0e
0(
17
b1010 ,
1+
15
#13000
1#$
1g"
0%$
0{"
0&$
01#
b100 @"
b100 Q"
b100 -$
b10100 6$
b10100 +#
17$
1,#
15$
1*#
b0 h#
b0 G"
b0 '$
b0 o#
b0 A"
b0 P"
0p#
0R"
0n#
0O"
r7 2
0+
05
#13500
b1 j
1#$
1g"
0%$
0{"
0&$
01#
b1100000100000000000000001001 Q
b1100000100000000000000001001 u
07
b101 9
b1100000100000000000000001001 *
b1100000100000000000000001001 4
b1100000100000000000000001001 O
b1100000100000000000000001001 a
b0 i
1d
1P
1f
1R
1g
1T
1l
1K
1&
b1011 ,
1+
15
#14000
b100 6$
b100 +#
07$
0,#
05$
0*#
1@$
1=#
1?$
1;#
r6 2
0+
05
